{
    "fluentMethods": true,
    "relationships": [
        {
            "relationshipName": "user",
            "otherEntityName": "user",
            "relationshipType": "many-to-one",
            "otherEntityField": "login",
            "ownerSide": true,
            "otherEntityRelationshipName": "comment"
        },
        {
          "relationshipType": "many-to-one",
          "relationshipName": "ticket",
          "otherEntityName": "ticket",
          "otherEntityField": "id"
        }
    ],
    "fields": [
        {
            "fieldName": "comment",
            "fieldType": "String",
            "fieldValidateRules": [
                "required",
                "maxlength"
            ],
            "fieldValidateRulesMaxlength": "1000"
        },
        {
            "fieldName": "commentType",
            "fieldType": "String",
            "fieldValidateRules": [
                "required",
                "maxlength"
            ],
            "fieldValidateRulesMaxlength": "50"
        },
        {
            "fieldName": "createdDate",
            "fieldType": "ZonedDateTime",
            "fieldValidateRules": [
                "required"
            ]
        }
    ],
    "changelogDate": "20171114130216",
    "dto": "no",
    "service": "serviceClass",
    "entityTableName": "comment",
    "jpaMetamodelFiltering": false,
    "pagination": "pagination"
}
